{
  "content": [
    {
      "id": 1,
      "name": "The Lord of the Rings",
      "description": "Lorem ipsum dolor sit amet, consectetur adipiscing elit, sed do eiusmod tempor incididunt ut labore et dolore magna aliqua. Ut enim ad minim veniam, quis nostrud exercitation ullamco laboris nisi ut aliquip ex ea commodo consequat. Duis aute irure dolor in reprehenderit in voluptate velit esse cillum dolore eu fugiat nulla pariatur. Excepteur sint occaecat cupidatat non proident, sunt in culpa qui officia deserunt mollit anim id est laborum.",
      "price": 90.5,
      "imgUrl": "https://raw.githubusercontent.com/devsuperior/dscatalog-resources/master/backend/img/1-big.jpg",
      "date": "2020-07-13T20:50:07.123450Z",
      "categories": []
    },
    {
      "id": 2,
      "name": "Smart TV",
      "description": "Lorem ipsum dolor sit amet, consectetur adipiscing elit, sed do eiusmod tempor incididunt ut labore et dolore magna aliqua. Ut enim ad minim veniam, quis nostrud exercitation ullamco laboris nisi ut aliquip ex ea commodo consequat. Duis aute irure dolor in reprehenderit in voluptate velit esse cillum dolore eu fugiat nulla pariatur. Excepteur sint occaecat cupidatat non proident, sunt in culpa qui officia deserunt mollit anim id est laborum.",
      "price": 2190.0,
      "imgUrl": "https://raw.githubusercontent.com/devsuperior/dscatalog-resources/master/backend/img/2-big.jpg",
      "date": "2020-07-14T10:00:00Z",
      "categories": []
    },
    {
      "id": 3,
      "name": "Macbook Pro",
      "description": "Lorem ipsum dolor sit amet, consectetur adipiscing elit, sed do eiusmod tempor incididunt ut labore et dolore magna aliqua. Ut enim ad minim veniam, quis nostrud exercitation ullamco laboris nisi ut aliquip ex ea commodo consequat. Duis aute irure dolor in reprehenderit in voluptate velit esse cillum dolore eu fugiat nulla pariatur. Excepteur sint occaecat cupidatat non proident, sunt in culpa qui officia deserunt mollit anim id est laborum.",
      "price": 1250.0,
      "imgUrl": "https://raw.githubusercontent.com/devsuperior/dscatalog-resources/master/backend/img/3-big.jpg",
      "date": "2020-07-14T10:00:00Z",
      "categories": []
    },
    {
      "id": 4,
      "name": "PC Gamer",
      "description": "Lorem ipsum dolor sit amet, consectetur adipiscing elit, sed do eiusmod tempor incididunt ut labore et dolore magna aliqua. Ut enim ad minim veniam, quis nostrud exercitation ullamco laboris nisi ut aliquip ex ea commodo consequat. Duis aute irure dolor in reprehenderit in voluptate velit esse cillum dolore eu fugiat nulla pariatur. Excepteur sint occaecat cupidatat non proident, sunt in culpa qui officia deserunt mollit anim id est laborum.",
      "price": 1200.0,
      "imgUrl": "https://raw.githubusercontent.com/devsuperior/dscatalog-resources/master/backend/img/4-big.jpg",
      "date": "2020-07-14T10:00:00Z",
      "categories": []
    },
    {
      "id": 5,
      "name": "Rails for Dummies",
      "description": "Lorem ipsum dolor sit amet, consectetur adipiscing elit, sed do eiusmod tempor incididunt ut labore et dolore magna aliqua. Ut enim ad minim veniam, quis nostrud exercitation ullamco laboris nisi ut aliquip ex ea commodo consequat. Duis aute irure dolor in reprehenderit in voluptate velit esse cillum dolore eu fugiat nulla pariatur. Excepteur sint occaecat cupidatat non proident, sunt in culpa qui officia deserunt mollit anim id est laborum.",
      "price": 100.99,
      "imgUrl": "https://raw.githubusercontent.com/devsuperior/dscatalog-resources/master/backend/img/5-big.jpg",
      "date": "2020-07-14T10:00:00Z",
      "categories": []
    },
    {
      "id": 6,
      "name": "PC Gamer Ex",
      "description": "Lorem ipsum dolor sit amet, consectetur adipiscing elit, sed do eiusmod tempor incididunt ut labore et dolore magna aliqua. Ut enim ad minim veniam, quis nostrud exercitation ullamco laboris nisi ut aliquip ex ea commodo consequat. Duis aute irure dolor in reprehenderit in voluptate velit esse cillum dolore eu fugiat nulla pariatur. Excepteur sint occaecat cupidatat non proident, sunt in culpa qui officia deserunt mollit anim id est laborum.",
      "price": 1350.0,
      "imgUrl": "https://raw.githubusercontent.com/devsuperior/dscatalog-resources/master/backend/img/6-big.jpg",
      "date": "2020-07-14T10:00:00Z",
      "categories": []
    },
    {
      "id": 7,
      "name": "PC Gamer X",
      "description": "Lorem ipsum dolor sit amet, consectetur adipiscing elit, sed do eiusmod tempor incididunt ut labore et dolore magna aliqua. Ut enim ad minim veniam, quis nostrud exercitation ullamco laboris nisi ut aliquip ex ea commodo consequat. Duis aute irure dolor in reprehenderit in voluptate velit esse cillum dolore eu fugiat nulla pariatur. Excepteur sint occaecat cupidatat non proident, sunt in culpa qui officia deserunt mollit anim id est laborum.",
      "price": 1350.0,
      "imgUrl": "https://raw.githubusercontent.com/devsuperior/dscatalog-resources/master/backend/img/7-big.jpg",
      "date": "2020-07-14T10:00:00Z",
      "categories": []
    },
    {
      "id": 8,
      "name": "PC Gamer Alfa",
      "description": "Lorem ipsum dolor sit amet, consectetur adipiscing elit, sed do eiusmod tempor incididunt ut labore et dolore magna aliqua. Ut enim ad minim veniam, quis nostrud exercitation ullamco laboris nisi ut aliquip ex ea commodo consequat. Duis aute irure dolor in reprehenderit in voluptate velit esse cillum dolore eu fugiat nulla pariatur. Excepteur sint occaecat cupidatat non proident, sunt in culpa qui officia deserunt mollit anim id est laborum.",
      "price": 1850.0,
      "imgUrl": "https://raw.githubusercontent.com/devsuperior/dscatalog-resources/master/backend/img/8-big.jpg",
      "date": "2020-07-14T10:00:00Z",
      "categories": []
    },
    {
      "id": 9,
      "name": "PC Gamer Tera",
      "description": "Lorem ipsum dolor sit amet, consectetur adipiscing elit, sed do eiusmod tempor incididunt ut labore et dolore magna aliqua. Ut enim ad minim veniam, quis nostrud exercitation ullamco laboris nisi ut aliquip ex ea commodo consequat. Duis aute irure dolor in reprehenderit in voluptate velit esse cillum dolore eu fugiat nulla pariatur. Excepteur sint occaecat cupidatat non proident, sunt in culpa qui officia deserunt mollit anim id est laborum.",
      "price": 1950.0,
      "imgUrl": "https://raw.githubusercontent.com/devsuperior/dscatalog-resources/master/backend/img/9-big.jpg",
      "date": "2020-07-14T10:00:00Z",
      "categories": []
    },
    {
      "id": 10,
      "name": "PC Gamer Y",
      "description": "Lorem ipsum dolor sit amet, consectetur adipiscing elit, sed do eiusmod tempor incididunt ut labore et dolore magna aliqua. Ut enim ad minim veniam, quis nostrud exercitation ullamco laboris nisi ut aliquip ex ea commodo consequat. Duis aute irure dolor in reprehenderit in voluptate velit esse cillum dolore eu fugiat nulla pariatur. Excepteur sint occaecat cupidatat non proident, sunt in culpa qui officia deserunt mollit anim id est laborum.",
      "price": 1700.0,
      "imgUrl": "https://raw.githubusercontent.com/devsuperior/dscatalog-resources/master/backend/img/10-big.jpg",
      "date": "2020-07-14T10:00:00Z",
      "categories": []
    },
    {
      "id": 11,
      "name": "PC Gamer Nitro",
      "description": "Lorem ipsum dolor sit amet, consectetur adipiscing elit, sed do eiusmod tempor incididunt ut labore et dolore magna aliqua. Ut enim ad minim veniam, quis nostrud exercitation ullamco laboris nisi ut aliquip ex ea commodo consequat. Duis aute irure dolor in reprehenderit in voluptate velit esse cillum dolore eu fugiat nulla pariatur. Excepteur sint occaecat cupidatat non proident, sunt in culpa qui officia deserunt mollit anim id est laborum.",
      "price": 1450.0,
      "imgUrl": "https://raw.githubusercontent.com/devsuperior/dscatalog-resources/master/backend/img/11-big.jpg",
      "date": "2020-07-14T10:00:00Z",
      "categories": []
    },
    {
      "id": 12,
      "name": "PC Gamer Card",
      "description": "Lorem ipsum dolor sit amet, consectetur adipiscing elit, sed do eiusmod tempor incididunt ut labore et dolore magna aliqua. Ut enim ad minim veniam, quis nostrud exercitation ullamco laboris nisi ut aliquip ex ea commodo consequat. Duis aute irure dolor in reprehenderit in voluptate velit esse cillum dolore eu fugiat nulla pariatur. Excepteur sint occaecat cupidatat non proident, sunt in culpa qui officia deserunt mollit anim id est laborum.",
      "price": 1850.0,
      "imgUrl": "https://raw.githubusercontent.com/devsuperior/dscatalog-resources/master/backend/img/12-big.jpg",
      "date": "2020-07-14T10:00:00Z",
      "categories": []
    },
    {
      "id": 13,
      "name": "PC Gamer Plus",
      "description": "Lorem ipsum dolor sit amet, consectetur adipiscing elit, sed do eiusmod tempor incididunt ut labore et dolore magna aliqua. Ut enim ad minim veniam, quis nostrud exercitation ullamco laboris nisi ut aliquip ex ea commodo consequat. Duis aute irure dolor in reprehenderit in voluptate velit esse cillum dolore eu fugiat nulla pariatur. Excepteur sint occaecat cupidatat non proident, sunt in culpa qui officia deserunt mollit anim id est laborum.",
      "price": 1350.0,
      "imgUrl": "https://raw.githubusercontent.com/devsuperior/dscatalog-resources/master/backend/img/13-big.jpg",
      "date": "2020-07-14T10:00:00Z",
      "categories": []
    },
    {
      "id": 14,
      "name": "PC Gamer Hera",
      "description": "Lorem ipsum dolor sit amet, consectetur adipiscing elit, sed do eiusmod tempor incididunt ut labore et dolore magna aliqua. Ut enim ad minim veniam, quis nostrud exercitation ullamco laboris nisi ut aliquip ex ea commodo consequat. Duis aute irure dolor in reprehenderit in voluptate velit esse cillum dolore eu fugiat nulla pariatur. Excepteur sint occaecat cupidatat non proident, sunt in culpa qui officia deserunt mollit anim id est laborum.",
      "price": 2250.0,
      "imgUrl": "https://raw.githubusercontent.com/devsuperior/dscatalog-resources/master/backend/img/14-big.jpg",
      "date": "2020-07-14T10:00:00Z",
      "categories": []
    },
    {
      "id": 15,
      "name": "PC Gamer Weed",
      "description": "Lorem ipsum dolor sit amet, consectetur adipiscing elit, sed do eiusmod tempor incididunt ut labore et dolore magna aliqua. Ut enim ad minim veniam, quis nostrud exercitation ullamco laboris nisi ut aliquip ex ea commodo consequat. Duis aute irure dolor in reprehenderit in voluptate velit esse cillum dolore eu fugiat nulla pariatur. Excepteur sint occaecat cupidatat non proident, sunt in culpa qui officia deserunt mollit anim id est laborum.",
      "price": 2200.0,
      "imgUrl": "https://raw.githubusercontent.com/devsuperior/dscatalog-resources/master/backend/img/15-big.jpg",
      "date": "2020-07-14T10:00:00Z",
      "categories": []
    },
    {
      "id": 16,
      "name": "PC Gamer Max",
      "description": "Lorem ipsum dolor sit amet, consectetur adipiscing elit, sed do eiusmod tempor incididunt ut labore et dolore magna aliqua. Ut enim ad minim veniam, quis nostrud exercitation ullamco laboris nisi ut aliquip ex ea commodo consequat. Duis aute irure dolor in reprehenderit in voluptate velit esse cillum dolore eu fugiat nulla pariatur. Excepteur sint occaecat cupidatat non proident, sunt in culpa qui officia deserunt mollit anim id est laborum.",
      "price": 2340.0,
      "imgUrl": "https://raw.githubusercontent.com/devsuperior/dscatalog-resources/master/backend/img/16-big.jpg",
      "date": "2020-07-14T10:00:00Z",
      "categories": []
    },
    {
      "id": 17,
      "name": "PC Gamer Turbo",
      "description": "Lorem ipsum dolor sit amet, consectetur adipiscing elit, sed do eiusmod tempor incididunt ut labore et dolore magna aliqua. Ut enim ad minim veniam, quis nostrud exercitation ullamco laboris nisi ut aliquip ex ea commodo consequat. Duis aute irure dolor in reprehenderit in voluptate velit esse cillum dolore eu fugiat nulla pariatur. Excepteur sint occaecat cupidatat non proident, sunt in culpa qui officia deserunt mollit anim id est laborum.",
      "price": 1280.0,
      "imgUrl": "https://raw.githubusercontent.com/devsuperior/dscatalog-resources/master/backend/img/17-big.jpg",
      "date": "2020-07-14T10:00:00Z",
      "categories": []
    },
    {
      "id": 18,
      "name": "PC Gamer Hot",
      "description": "Lorem ipsum dolor sit amet, consectetur adipiscing elit, sed do eiusmod tempor incididunt ut labore et dolore magna aliqua. Ut enim ad minim veniam, quis nostrud exercitation ullamco laboris nisi ut aliquip ex ea commodo consequat. Duis aute irure dolor in reprehenderit in voluptate velit esse cillum dolore eu fugiat nulla pariatur. Excepteur sint occaecat cupidatat non proident, sunt in culpa qui officia deserunt mollit anim id est laborum.",
      "price": 1450.0,
      "imgUrl": "https://raw.githubusercontent.com/devsuperior/dscatalog-resources/master/backend/img/18-big.jpg",
      "date": "2020-07-14T10:00:00Z",
      "categories": []
    },
    {
      "id": 19,
      "name": "PC Gamer Ez",
      "description": "Lorem ipsum dolor sit amet, consectetur adipiscing elit, sed do eiusmod tempor incididunt ut labore et dolore magna aliqua. Ut enim ad minim veniam, quis nostrud exercitation ullamco laboris nisi ut aliquip ex ea commodo consequat. Duis aute irure dolor in reprehenderit in voluptate velit esse cillum dolore eu fugiat nulla pariatur. Excepteur sint occaecat cupidatat non proident, sunt in culpa qui officia deserunt mollit anim id est laborum.",
      "price": 1750.0,
      "imgUrl": "https://raw.githubusercontent.com/devsuperior/dscatalog-resources/master/backend/img/19-big.jpg",
      "date": "2020-07-14T10:00:00Z",
      "categories": []
    },
    {
      "id": 20,
      "name": "PC Gamer Tr",
      "description": "Lorem ipsum dolor sit amet, consectetur adipiscing elit, sed do eiusmod tempor incididunt ut labore et dolore magna aliqua. Ut enim ad minim veniam, quis nostrud exercitation ullamco laboris nisi ut aliquip ex ea commodo consequat. Duis aute irure dolor in reprehenderit in voluptate velit esse cillum dolore eu fugiat nulla pariatur. Excepteur sint occaecat cupidatat non proident, sunt in culpa qui officia deserunt mollit anim id est laborum.",
      "price": 1650.0,
      "imgUrl": "https://raw.githubusercontent.com/devsuperior/dscatalog-resources/master/backend/img/20-big.jpg",
      "date": "2020-07-14T10:00:00Z",
      "categories": []
    }
  ],
  "pageable": {
    "sort": {
      "empty": true,
      "sorted": false,
      "unsorted": true
    },
    "offset": 0,
    "pageNumber": 0,
    "pageSize": 20,
    "unpaged": false,
    "paged": true
  },
  "last": false,
  "totalPages": 2,
  "totalElements": 25,
  "size": 20,
  "number": 0,
  "sort": {
    "empty": true,
    "sorted": false,
    "unsorted": true
  },
  "first": true,
  "numberOfElements": 20,
  "empty": false
}